<?xml version="1.0" encoding="utf-8"?>
<!-- Generator: Adobe Illustrator 15.1.0, SVG Export Plug-In . SVG Version: 6.00 Build 0)  -->
<!DOCTYPE svg PUBLIC "-//W3C//DTD SVG 1.1//EN" "http://www.w3.org/Graphics/SVG/1.1/DTD/svg11.dtd">
<svg version="1.1" id="Layer_50" xmlns="http://www.w3.org/2000/svg" xmlns:xlink="http://www.w3.org/1999/xlink" x="0px" y="0px"
	 width="153.076px" height="122.315px" viewBox="0 0 153.076 122.315" enable-background="new 0 0 153.076 122.315"
	 xml:space="preserve">
<g>
	<polygon fill="#19335D" points="105.035,100.688 105.035,97.428 103.435,97.428 103.435,95.646 107.174,95.646 107.174,100.688 	
		"/>
	<polygon fill="#1EA8E0" points="114.338,104.999 117.439,97.428 112.539,97.428 112.539,93.024 114.678,93.024 114.678,95.646 
		120.288,95.646 116.635,104.999 	"/>
	<polygon fill="#1EA8E0" points="11.153,105.193 11.153,97.262 7.638,97.262 7.638,95.483 17.087,95.483 17.087,97.262 
		13.573,97.262 13.573,105.193 	"/>
	<path fill="#1EA8E0" d="M26.373,105.196l-0.797-1.921h-4.338l-0.729,1.921h-2.564l3.915-9.713h2.805l4.317,9.713H26.373z
		 M21.874,101.58h2.993l-1.571-3.775L21.874,101.58z"/>
	<polygon fill="#1EA8E0" points="45.389,105.193 45.389,95.483 47.81,95.483 47.81,103.419 52.793,103.419 52.793,105.193 	"/>
	<rect x="56.363" y="95.479" fill="#1EA8E0" width="2.423" height="9.713"/>
	<polygon fill="#1EA8E0" points="65.985,105.193 65.985,97.262 62.465,97.262 62.465,95.483 71.927,95.483 71.927,97.262 
		68.406,97.262 68.406,105.193 	"/>
	<path fill="#1EA8E0" d="M113.154,28.711c0.425,1.421-1.255,3.335-1.958,4.599c0,0-0.111,0.119,0.224,0.018
		c0.327-0.105,0.529-0.423,0.629-0.656c-0.776,1.404-1.919,3.774-3.479,4.918c0.349-0.707,0.864-1.237,1.038-1.839
		c-0.14-0.058-0.094-0.056-0.419,0.051c-0.056,0.013-4.52,5.723-4.504,5.776c0.099,0.336,0.087,0.044,0.298,0.038
		c-2.111,1.93-4.203,3.612-5.927,5.871c0.138,0.051,0.306,0.051,0.341,0.237c-0.176,0.078-0.27-0.061-0.417-0.148
		c-0.106,0.038-0.038,0.018,0.064,0.357c0.103,0.334-1.775,1.951-2.766,2.828c0.357-0.618,0.445-0.39,0.765-1.295
		c0,0,0.102-0.126-0.227-0.02c-0.081,0.022-2.49,2.207-3.457,3.224c0,0,0.084,0.047,0.24,0.074
		c-0.111,0.108-0.159,0.199-0.159,0.421c0,0,0.135-0.49-0.193-0.386c-1.562,0.486-11.45,13.188-13.675,16.245
		c0.339-0.8,0.784-1.223,1.015-1.943c-3.776,3.582-7.229,8.741-11.971,11.416c1.455-1.731,3.095-3.335,4.719-5.061
		c-0.141-0.047,0.046-0.082-0.284,0.023c-0.332,0.103-1.691,1.254-2.348,2.004c-3.488,1.836-6.198,4.767-9.302,7.398
		c-0.091-0.185,0.009-0.414,0.103-0.524c-0.26-0.014-0.466,0.046-0.777,0.275c1.619-3.878,5.047-5.886,7.11-8.959
		c1.401-1.114,2.583-2.928,2.515-2.91c-0.329,0.107-0.935,0.878-1.477,1.318c1.439-2.031,2.934-3.833,4.412-5.6
		c-0.044-0.1-0.051-0.195-0.18-0.279l-8.769,8.704c8.433-8.259,15.064-20.179,23.595-28.248c0,0,0-0.066-0.131-0.155
		c-3.837,3.746-7.513,7.797-11.189,11.936c-0.28,0.087-0.491-0.142-0.833-0.086c0.547-0.699,1.168-1.483,1.728-2.262
		c0,0,0.074,0.146,0.196,0.234c0.984-1.642,2.603-2.963,3.769-4.88c0,0,0.085,0.14,0.214,0.226
		c4.647-5.145,9.708-9.562,14.597-14.418c-0.138-0.044-0.309-0.044-0.344-0.226c1.455-0.905,1.895-2.061,3.363-3.251
		c0,0,0.038-0.356-0.297-0.255c-0.778,0.244-5.832,5.726-7.509,7.264c-1.082,0.987-2.157,2.071-2.937,3.335
		c-0.329,0.528-2.784,2.72-3.212,2.855c-0.056,0.016-0.68,1.017-1.506,1.799c-0.217-0.102-0.382-0.102-0.422-0.274
		c6.442-6.555,13.251-12.416,19.154-19.94c0.15-0.053,0.395,0.064,0.566,0.272c0.307-0.249,0.586-0.777,1.028-1.034
		c-0.261,0.615-0.707,1.055-0.975,1.541c0,0,0.002,0.08,0.131,0.168c0.935-0.858,2.328-1.861,3.23-2.908
		c-0.677,1.788-2.048,2.353-2.87,3.906c0.142,0.056,0.021,0.068,0.353-0.036c0.598-0.186,3.428-3.439,3.528-3.472
		c0.332-0.106,0.293,0.08,0.411,0.167c0.146-0.316,0.768-0.829,1.097-0.932c0.333-0.11,0.374,0.029,0.574,0.002
		c-0.029,0.38-0.346,0.771-0.404,1.042l0.291,0.149c0.447-0.291,1.109-0.798,1.444-0.903c0.595-0.183,0.275,0.105,1.419,0.185
		c0.098,0.301-0.142,0.454-0.042,0.794C112.45,27.82,113.054,28.371,113.154,28.711"/>
	<path fill="#1EA8E0" d="M67.166,60.08c0.959,0.38,1.291,1.43,1.686,2.361C68.23,61.764,67.694,60.958,67.166,60.08"/>
	<path fill="#1EA8E0" d="M58.157,49.82c0.208,0.299,0.478,0.576,0.591,1.047c-0.34-0.124-0.606-0.39-0.899-0.548
		C57.84,50.15,58.104,50.017,58.157,49.82 M48.666,36.898c0.891,0.814,1.834,1.761,2.454,2.731c0.4,1.124,1.796,1.809,2.657,3.058
		c1.537,2.213,2.902,4.633,4.325,7.081c0,0-0.15,0.032-0.337,0.181c-2.979-4.039-5.693-8.778-9.099-12.564V36.898z M44.158,20.643
		c0.319,0.137,0.425,0.267,0.755,0.267c0.335,0,0.666-0.269,1.003-0.269c0.363,0,4.197,3.129,4.197,3.329
		c0-0.33-0.393-0.569-0.507-0.916c1.369,1.339,3.379,3.235,4.334,5.169c-0.486-0.549-1.002-1.196-1.624-1.589
		c-0.093,0.115-0.076-0.064-0.076,0.27c0,0.332,0.785,1.357,1.167,1.826c1.949,0.522,2.914,4.302,3.699,4.302
		c0.334,0,0.064-0.066,0.111-0.265c2.021,2.541,3.957,5.605,5.78,8.268c0.102-0.009,0.188-0.162,0.102-0.343
		c0.18,0.084,0.313,0.219,0.402,0.4c-0.182-0.086-0.222-0.086-0.34,0.024c0.006,0.108,0.006,0.443,0.34,0.443
		c0.329,0,0.065-0.067,0.111-0.264l2.993,3.977c-0.624-0.533-1.029-1.208-1.538-1.855c-0.1,0.005-0.188-0.015-0.302,0.079
		c0.519,0.757,1.064,2.459,1.397,2.459c0.334,0,0.069-0.067,0.129-0.135c-0.046,0.681,1.009,1.726,1.502,2.407
		c0.102-0.007,0.169-0.206,0.233-0.341c0.071,0.135,0.106,0.206,0.34,0.115c-0.261-0.347-0.507-0.859-0.932-1.214
		c0.671,0.258,1.096,0.961,1.454,1.53c-0.193,0.035-0.375-0.117-0.458-0.232c-0.087,0.115,0.018,0.396,0.018,0.396
		c-0.202-0.149-0.333-0.149-0.411-0.263c0,0-0.076,0.07-0.081,0.179l13.968,20.06c-0.486-0.405-0.739-0.927-1.205-1.197
		c0.033,0.212,0.432,0.212,0.432,0.546c0,0.33-0.15,0.114-0.268,0.205c3.304,4.921,7.319,9.843,9.694,15.241
		c-1.155-1.485-1.817-3.332-2.935-4.677c-0.63-0.765-0.928-1.188-1.747-1.712c0,0-0.079-0.132-0.079,0.203
		c0,0.366,1.826,2.869,1.857,2.954c-0.192,0.043-0.263-0.023-0.263,0.308c0,0.333,0.392,0.698,0.633,1.076
		c0.1-0.005,0.163-0.074,0.231-0.275c0.235,2.313,2.077,4.203,3.077,6.334c0.534,1.135,0.97,2.467,1.777,3.435V91.9
		c-0.191,0.018-0.371,0-0.442-0.116c-0.086,0.231-0.086,0.439,0.029,0.788c-1.334-1.101-1.592-3.179-2.668-3.859
		c0.029,0.073,0.095,0.144,0.194,0.151c0,0,0.104,0.124,0.104-0.208c0-0.134-5.983-7.836-7.531-9.926
		c-0.085,0.116-0.067-0.068-0.067,0.266s0.653,1.226,1.047,1.85c-2.059-1.834-5.31-6.281-5.31-6.245c0,0.966,6.285,9.288,8.1,12.113
		C78.304,75.47,69.508,63.55,61.375,52.484c0,0-0.071,0.068-0.076,0.182l10.252,15.37c-0.322,0.035-0.277-0.116-0.4-0.009v0.464
		c0.079-0.02,0.213,0.112,0.283,0.149L59.244,51.416c0,0-0.073-0.129-0.073,0.202c0,1.082,2.831,4.302,3.354,5.008
		c-6.355-7.766-12.1-17.127-18.671-25.421c0.199-0.036,0.378,0.117,0.452,0.228c0,0,0.079,0.135,0.079-0.199
		c0-0.334-0.789-1.291-1.137-1.867c0.456,0.493,1.119,1.158,1.606,1.803c0.078-0.115,0.06,0.064,0.06-0.27
		c0-0.331-1.593-2.837-2.227-4.391c1.032,1.407,2.38,3.083,3.493,4.526c0.088-0.112,0.068,0.067,0.068-0.268
		c0-0.717-3.596-5.426-3.596-7.261c0-0.332,0.135-0.264,0.176-0.458c0.34,0.279,0.744,0.555,0.962,0.927
		c0.076-0.118,0.058,0.064,0.058-0.27c0-0.332-0.263-1.662-0.263-1.996C43.584,21.174,43.918,21.231,44.158,20.643"/>
	<path fill="#1EA8E0" d="M40.544,44.398c0.47,0,3.281,1.738,3.758,2.271c0.108-0.005,0.19,0.012,0.307-0.085
		c-0.129-0.366-0.645-0.606-0.914-0.964c1.119,0.756,2.59,1.483,4.105,2.339c-0.355-0.103-0.789-0.267-0.893-0.505H46.43
		c-0.108,0.123-0.108,0.256-0.22,0.329c0.491,0.219,1.038,0.625,1.518,1.014c0,0,0.08-0.066,0.1-0.258h0.736
		c0.648,0.555,2.512,1.854,3.637,1.854c0.337,0,0.271-0.065,0.306-0.257c0.744,0.382,5.691,2.789,7.16,2.789
		c0.331,0,0.46-0.267,0.8-0.267c0.331,0,2.212,0.536,3.327,0.902h-0.66c-0.337,0.033-0.12-0.123-0.22-0.239l-0.583,0.084
		c2.381,1.377,12.275,3.116,13.67,3.116h2.368c0.332,0,0.763,0.401,1.103,0.401h3.025c0.334,0,0.285,0.263,0.422,0.263l4.595,0.2
		l-1.867,0.149c0.76,0.329,1.815,0.452,2.483,0.452h1.779c0.331,0-0.068-0.267,0.266-0.267h2.181c3.635,0,6.249-0.729,9.675-1.413
		c-2.394,0.78-4.575,1.413-6.925,2.163c0.111,0.071,0.331,0.05,1.781,0.053c0.522-0.261,1.202-0.267,1.815-0.329
		c-0.068,0.059-0.264,0.124-0.282,0.215l0.702,0.134c0,0,0.049-0.29-0.018-0.357c3.879,0,7.01-1.762,10.779-2.831
		c-0.14,0.213-0.295,0.498-0.527,0.551c0.422-0.051,0.287-0.09,0.938,0.284c-1.24,0.595-2.304,1.395-3.464,1.868
		c0,0,0.063,0.064,0.199,0.128c-0.135,0.067-0.332,0.133-0.387,0.201c0,0-0.012-0.266,0.058-0.216
		c-0.849-0.357-0.669-0.234-0.669,0.216c0,0.335,0.066,0.133,0.2,0.2c-0.134,0.068-0.621-0.087-0.737-0.009
		c0,0,0.073,0.077,0.269,0.132c-3.406,1.205-6.512,2.658-9.995,3.207c0.615,0.071,1.255,0.071,1.999-0.024
		c-1.788,1.313-4.962,0.977-7.093,1.416c-0.12,0.124-0.231,0.208-0.244,0.308c0,0-0.123,0.1,0.215,0.1
		c0.333,0,0.2-0.064,0.245-0.266c0.212,0.305,0.353,0.266,0.687,0.266c0.331,0,0.528-0.27,0.865-0.27c0.333,0,0.6,0.27,0.934,0.27
		c1.166,0,10.194-2.113,11.053-2.209c-3.896,0.862-7.284,2.092-11.247,2.609c-1.731,0.219-3.024,0.402-3.359,0.402H78.401
		c-3.514,0-11.569-2.249-14.608-2.187c5.307,1.99,11.949,2.253,17.852,3.165c-0.153,0.197-0.141,0.182-0.007,0.467H79.55
		c-0.208-0.277-0.484-0.514-0.78-0.514h-2.368c-0.015,0-1.003-0.398-1.231-0.398h-2.368c-4.113,0-17.08-4.984-19.342-5.165
		c-2.431-0.202-4.479-1.354-6.46-2.069c2.737,1.747,13.646,5.5,14.664,5.5c0.332,0,0.132-0.263,0.466-0.263
		c0.75,0,5.19,1.122,6.459,1.836h-0.849c-1.346,0.027-14.215-3.594-17.196-4.824c-3.497-1.447-7.022-3.054-10.466-5.358
		c0.333-0.05,0.731-0.05,0.814-0.02c-0.276-0.463-1.362-1.123-2.002-1.591c0.73,0.286,1.562,1.028,2.395,1.197
		c-1.055-0.989-2.388-2.188-3.458-3.476c1.58,0.716,2.65,2.243,4.525,2.808c-1.542-1.62-3.657-3.411-5.059-5.407v-0.739
		c0.322-0.014,0.504,0.27,0.738,0.519l0.452-0.094c-0.323-0.331-0.803-1.772-0.803-2.374C37.681,45.53,40.383,44.398,40.544,44.398"
		/>
	<path fill="#1EA8E0" d="M78.131,0c-0.144,0.207-0.126,0.428-0.173,1.032c0.071-0.224,1.513-0.938,1.981-0.938
		c0.332,0,0.56,0.275,0.862,0.454c-0.153,0.193-0.129,0.08-0.129,0.414c0,0.316,0.668,0.917,0.668,1.533
		c0,0.797-1.114,2.228-1.599,3.13c0,0-0.024,0.084,0.063,0.199c0.085-0.115,0.353-0.246,0.579-0.384
		c-1.261,1.431-1.976,3.022-3.278,4.502c0.244-0.62,0.638-1.015,0.9-1.642L77.8,8.09c-1.178,1.229-1.125,0.729-1.125,1.863
		c0,0.334-1.883,2.107-2.801,3.138c0,0-0.017,0.08,0.069,0.191c0.084-0.111,0.24-0.391,0.586-0.503
		c-1.275,1.268-5.98,5.803-5.98,6.366c0,0.333,0.018,0.154,0.24,0.02c-0.927,1.157-1.987,2.221-2.881,3.301
		c0.255-0.494,0.52-0.894,0.906-1.396c0,0,0.018-0.075-0.065-0.189c-0.219,0.249-0.604,0.488-0.797,0.929
		c0,0-0.053-0.148-0.141-0.264l-15.886,16.51c0.105-0.478,0.504-0.741,0.662-1.198c-3.166,2.954-7.544,7.171-11.067,10.247
		c1.348-1.556,3.013-3.62,4.378-5.118c0,0,0.018-0.076-0.071-0.187c-0.891,0.78-1.943,1.708-2.831,2.652
		c0.158-0.487,0.504-0.322,0.416-0.792c-2.602,2.317-5.442,4.975-8.426,6.639c0.138-0.222,0.138-0.396,0.038-0.509
		c-0.222,0.128-0.358,0.26-0.697,0.383c0.384-0.99,2.159-1.97,2.266-3.027c0.176-0.018,0.225,0.135,0.308,0.247
		c1.863-2.67,4.364-5.237,6.477-7.621c-0.322,0.158-0.691,0.533-1.178,1.084c0.469-1.776,2.72-3.081,3.593-4.933l-8.271,7.987
		c8.026-8.588,15.004-16.731,23.049-25.314l-11.36,10.965c0.027-0.103,0.352-0.498,0.458-0.828c-0.06,0.121-0.241,0.276-0.434,0.232
		l18.515-18.605c0,0-0.067-0.138-0.265-0.182c0.897-0.936,2.179-2.433,3.063-3.363c0,0,0.018-0.076-0.071-0.189
		c-4.284,3.977-8.582,8.953-12.456,12.709c0,0,0.064,0.078,0.264,0.119c-0.284,0.34-0.688,0.878-1.308,1.271
		C60.15,14.209,66.944,8.397,71.961,1.964c0.05,0.196,0.033,0.284,0.123,0.398c0.357-0.255,0.615-0.789,1.237-1.184
		c-0.253,0.612-0.779,1.14-1.073,1.729c0.851-0.796,2.046-1.729,3.201-2.793C74.594,1.38,73.726,2.336,72.677,3.5
		c0,0-0.129,0.325,0.2,0.325C73.457,3.825,76.563,0.211,78.131,0"/>
	<path fill="#1EA8E0" d="M80.896,0.483c1.398,0,2.646,2.054,3.587,3.065c0,0,0.073,0.135,0.073-0.199
		c0-0.336-0.231-0.609-0.41-0.759c1.046,1.1,2.857,2.796,3.444,4.546c-0.533-0.509-0.868-1.133-1.36-1.457
		c-0.095,0.115-0.071,0.064-0.071,0.401c0,0.048,3.878,5.729,3.928,5.729c0.334,0,0.067-0.067,0.118-0.265
		c1.142,2.468,2.068,4.854,3.619,7.061c0.08-0.114,0.126-0.267,0.309-0.249c0.021,0.182-0.135,0.229-0.253,0.341
		c0.006,0.108,0.006,0.038,0.34,0.038c0.332,0,1.261,2.169,1.765,3.324c-0.452-0.499-0.224-0.519-0.95-1.063
		c0,0-0.085-0.128-0.085,0.206c0,0.064,1.292,2.896,1.931,4.062c0,0,0.068-0.065,0.135-0.203c0.065,0.137,0.129,0.203,0.334,0.265
		c0,0-0.401-0.265-0.401,0.07c0,1.569,8.661,14.15,10.771,17.041c-0.626-0.54-0.882-1.06-1.464-1.467
		c2.162,4.455,5.829,9.044,6.908,14.135c-1.146-1.814-2.13-3.76-3.233-5.724c-0.083,0.112-0.058-0.068-0.058,0.264
		c0,0.336,0.656,1.897,1.144,2.708c0.669,3.71,2.549,7.011,4.041,10.586c-0.185,0.033-0.369-0.119-0.442-0.237
		c-0.088,0.235-0.088,0.436,0.029,0.786c-3.03-2.549-3.875-6.258-6.062-8.996c-0.604-1.591-1.904-3.18-1.904-3.111
		c0,0.331,0.524,1.102,0.764,1.719c-1.421-1.881-2.621-3.751-3.796-5.592c-0.098,0.007-0.189-0.011-0.304,0.083l5.37,10.458
		c-5.059-10.021-13.919-19.4-18.779-29.454c0,0-0.062-0.018-0.179,0.08c2.296,4.555,4.907,9.047,7.592,13.562
		c0.005,0.283-0.264,0.416-0.311,0.747c-0.475-0.698-1.006-1.489-1.548-2.212c0,0,0.153-0.031,0.265-0.122
		c-1.198-1.348-1.931-3.2-3.33-4.804c0,0,0.153-0.034,0.264-0.129c-3.318-5.688-5.871-11.55-8.868-17.379
		c-0.078,0.113-0.124,0.269-0.3,0.254c-0.405-1.589-1.315-2.313-1.976-3.988c0,0-0.311-0.13-0.311,0.204
		c0,0.766,3.505,6.933,4.423,8.899c0.583,1.266,1.253,2.547,2.171,3.616c0.382,0.449,1.666,3.306,1.666,3.738
		c0,0.053,0.727,0.891,1.195,1.879c-0.149,0.17-0.199,0.319-0.366,0.31c-4.088-7.723-7.447-15.589-12.551-23.087
		c-0.008-0.152,0.164-0.343,0.402-0.442c-0.134-0.354-0.538-0.752-0.642-1.23c0.484,0.407,0.748,0.944,1.112,1.321
		c0,0,0.076,0.021,0.192-0.079c-0.512-1.093-1.022-2.647-1.711-3.767c1.418,1.114,1.539,2.533,2.708,3.713
		c0.084-0.114,0.067,0,0.067-0.333c0-0.6-2.136-4.099-2.136-4.198c0-0.331,0.158-0.244,0.272-0.331
		c-0.249-0.222-0.536-0.935-0.536-1.267c0-0.334,0.129-0.334,0.167-0.521c0.325,0.129,0.595,0.528,0.824,0.656L78.7,3.458
		c-0.134-0.491-0.404-1.242-0.404-1.574c0-0.601,0.173-0.224,0.566-1.255c0.302-0.014,0.369,0.252,0.7,0.252
		C79.895,0.882,80.561,0.483,80.896,0.483"/>
	<path fill="#00A8E0" d="M29.017,20.833c-0.249,0.493-0.789,0.903-1.185,1.21C28.14,21.762,28.524,21.382,29.017,20.833"/>
	<path fill="#00A8E0" d="M29.017,20.833c-0.249,0.493-0.789,0.903-1.185,1.21C28.14,21.762,28.524,21.382,29.017,20.833"/>
	<path fill="#1EA8E0" d="M71.727,14.754c0.337-0.003,0.417,0.264,0.69,0.264l4.932,0.267c11.958,1.498,23.541,5.214,35.237,8.172
		c-1.159-0.317-2.231-0.452-3.143-0.844l-0.458,0.073c10.646,3.977,22.373,7.255,32.095,15.353
		c-3.318-2.098-6.935-4.194-10.33-6.201c-1.013,0.084-2.208-0.753-3.05-1.096l-0.466,0.078c8.529,4.659,17.496,11.56,25.84,18.139
		c-0.481-0.098-0.724-0.364-1.204-0.391c0.16,0.542,0.682,0.683,1.207,1.054c-2.599-0.985-5.061-3.429-7.576-4.387
		c-0.013-0.806-0.475-0.709-0.771-1.049h-0.331c0.022,0.078,0.158,0.208,0.116,0.404c-1.254-1.266-2.726-2.036-4.194-3.039
		c-3.561-2.444-14.681-8.68-14.681-7.615c0,0.15,2.128,1.386,2.931,1.647l-12.861-4.71l-0.463,0.076
		c7.837,3.394,16.728,6.846,24.365,12.689c-19.309-13.712-41.87-16.182-63.348-20.892l-6.653-0.265
		c-0.129,0-0.082-0.267-0.414-0.267h-4.095c-0.333,0-0.287,0.267-0.412,0.299h-1.537l7.929,0.232c0.264,0,0.399,0.266,0.662,0.266
		l4.132,0.135c7.234,0.932,14.755,3.28,21.783,5.004c-0.202,0.058-0.404-0.142-0.404,0.192c0,0.332,0.071,0.135,0.136,0.191
		c-3.981-1.043-7.34-2.108-11.402-2.961c-3.464-0.711-7.86-1.263-11.184-1.896l-3.458-0.133c-0.135,0-0.082-0.267-0.416-0.267
		h-4.764c-0.333,0-0.283,0.267-0.412,0.267l-9.327,0.265c-4.156,0.537-3.514,0.384-8.262,0.671c-0.133,0-0.333,0.064-0.355,0.254
		h-2.028c-1.733,0.009-4.021,1.009-5.698,1.187c0.018,0.088,0.018,0.355,0.029,0.255c0,0,0.124-0.103-0.211-0.103
		c-0.633,0-8.115,1.917-9.695,2.122c-0.117,0.123-0.117,0.254-0.229,0.346c0.111,0.085,0,0.064,0.331,0.064
		c1.315,0,17.02-3.48,21.249-3.662l-1.063-0.005h1.729c-11.545,1.703-24.011,3.948-35.166,7.357c0.299-0.22,0.433-0.352,0.662-0.443
		c0,0,0.018-0.071-0.08-0.181c-1.298,0.526-2.897,0.794-3.973,1.168h-0.61c1.433-0.469,3.133-0.896,4.663-1.646
		c-0.118-0.073,0.067-0.056-0.264-0.056c-0.82,0-7.406,1.583-8.795,1.675c2.945-0.876,6.451-2.126,9.496-2.599
		c0.114-0.121,0.229-0.208,0.234-0.317c-0.12-0.111-0.074-0.093-0.407-0.093c-0.331,0-5.227,1.17-7.69,1.815
		c-1.555,0.416-3.57,0.387-5.292,0.72l-1.802-0.194c0.704-0.336,1.495-0.597,2.128-0.928c-0.611-0.083-2.603,0.057-4.778-0.1
		C0.533,30.805,0.142,30.701,0,30.391c0.311-0.254,1.196-0.533,1.196-0.985c0-0.334-0.064-0.133-0.258-0.17
		c2.221-3.033,6.9-3.408,10.258-4.707c-0.116-0.073-0.071-0.049-0.404-0.049c-0.334,0-1,0.398-1.529,0.33l0.398,0.004H8.93
		c3.427-1.083,7.038-3.002,10.925-3.331c-1.249,0.115-2.128,0.502-3.205,1.2c0.121,0.082,0.121,0.213,0.214,0.331
		c1.332-0.613,3.852-0.143,4.072-1.58l10.788-2.526c-0.018-0.094-0.146-0.226-0.1-0.425c0,0,0.065,0.153,0.156,0.267
		c0.472-0.339,4.494-1.466,5.874-1.466h1.832c0.335,0,2.659-0.75,4.042-0.898c2.749-0.321,6.303-0.499,6.303-0.967
		c0-0.332-0.069-0.133-0.14-0.186c0.463,0.142,1.501,0.177,2.041-0.477H71.727z"/>
	<path fill="#19335D" d="M74.423,48.943c-0.263,0-3.037-0.717-3.69-1.626c0.438,0.126,4.112,1.495,5.027,1.493h2.526
		c5.44-1.715,8.98-5.974,8.98-11.586c0-6.929-7.177-13.858-13.922-13.858c-4.364,0-10.009,4.911-10.147,9.198
		c-0.065-0.12-0.111-0.404-0.293-0.383c-0.018,0.58-0.084,1.24-0.234,3.844c-0.264-0.406-0.388-1.175-0.421-1.73v1.414
		c-0.028,0.049-0.06,0.982,0.14,1.733c0.065,0.267,0.103,0.56,0.135,0.624c0.22,0.452,0.263,1.123,0.398,1.589
		c0.129,0.469,0.896,1.032,0.896,1.366s-0.081,0.203-0.081,0.203c-0.962-0.789-1.602-2.553-2.002-3.597
		c0.336,1.612,1.549,3.113,1.549,3.662c0,0.334-0.076,0.202-0.076,0.202c-0.076-0.117-0.255-0.267-0.444-0.235
		c3.265,4.617,8.599,8.093,14.044,8.093c4.896,0,7.738-1.326,9.954-6.97c0.416-1.086,1.171-2.773,1.144-3.104v-0.586
		c-1.572,6.348-4.873,10.527-11.033,10.527c-0.046,0-0.697-0.27-0.747-0.27H74.423z M63.661,37.373
		c0.37,1.059,0.959,2.691,1.741,3.82c-0.914-0.431-2.515-3.173-2.515-4.438c0-0.331,0.264-1.063,0.335-1.729
		C63.285,35.972,62.703,37.157,63.661,37.373 M76.625,37.139c-0.016-0.334,0.389-1.076,0.715-1.783
		c0.196,0.302,0.473,0.665,0.473,1.001c0,0.312-0.927,2.108-1.188,2.184V37.139z M72.09,36.371
		c-0.234-0.684-0.041-2.577-0.041-2.577l0.352-0.299c0.19-0.19,0.349-0.308,0.64-0.554l0.799-0.691c0,0,1.008,0.606,1.636,1.007
		c0.413,0.261,0.812,0.746,1.053,1.214c0.084,0.125,0.213,0.272,0.213,0.349c0,0.115-0.035,0.146-0.056,0.22
		c-0.011,0.043,0.052,0.1,0.034,0.131c-0.169,0.306-0.146,0.299-0.041,0.235c0.153-0.068,0.476-0.108,0.316-0.132
		c0.004,0.005-0.008,0.011-0.005,0.018c0.023-0.003,0.023-0.014,0.046-0.018c0.44-0.047,0.105,0.205-0.375,0.782
		c-0.48,0.58-0.953,1.387-1.107,1.917c-0.16,0.531-0.22,0.78-0.22,0.985c0,0.203-0.617,0.073-0.617,0.073l-2.317-1.677
		c0,0,0.182-0.363-0.229-0.718c-0.036-0.031-0.042-0.155-0.074-0.226c-0.006-0.005,0-0.013-0.009-0.018V36.371z M75.212,31.76
		c-0.132-0.247,0.146-1.055,0.431-1.325C75.538,30.913,75.409,31.314,75.212,31.76 M64.711,31.088
		c-0.211-0.149-0.229-0.062-0.229-0.396c0-3.997,7.164-6.526,9.326-6.526c3.735,0,7.287,2.275,9.57,5.583
		c-1.111-1.434-6.151-5.32-8.719-5.32h-1.695C70.18,24.429,64.916,28.8,64.711,31.088"/>
	<path fill="#1EA8E0" d="M98.06,104.999h-2.135v-7.571h-3.721v5.238c0,0.688-0.224,1.25-0.663,1.694
		c-0.432,0.424-0.991,0.639-1.692,0.639h-1.68v-1.779h1.304c0.391,0,0.589-0.244,0.589-0.732v-5.059h-1.729v-1.784h9.726V104.999z"
		/>
	<rect fill="none" width="153.076" height="122.315"/>
	<polygon fill="#1EA8E0" points="105.035,100.688 105.035,97.428 103.435,97.428 103.435,95.646 107.174,95.646 107.174,100.688 	
		"/>
	<polygon fill="#1EA8E0" points="114.338,104.999 117.439,97.428 112.539,97.428 112.539,93.024 114.678,93.024 114.678,95.646 
		120.288,95.646 116.635,104.999 	"/>
	<g>
		<defs>
			<rect id="SVGID_1_" width="153.076" height="122.315"/>
		</defs>
		<clipPath id="SVGID_2_">
			<use xlink:href="#SVGID_1_"  overflow="visible"/>
		</clipPath>
		<path clip-path="url(#SVGID_2_)" fill="#1EA8E0" d="M130.104,104.999h-1.888c-0.084-0.735-0.155-1.586-0.213-2.547h-0.071
			c-0.394,0.976-0.739,1.625-1.035,1.941c-0.454,0.498-1.117,0.75-1.999,0.75h-0.067v-1.997c0.771,0,1.448-0.295,2.031-0.891
			c0.577-0.595,0.871-1.271,0.871-2.032v-0.176l-0.181-2.62h-2.205v-1.784h4.169L130.104,104.999z"/>
		<path clip-path="url(#SVGID_2_)" fill="#1EA8E0" d="M145.412,104.999h-2.143v-7.571h-3.726v5.238c0,0.688-0.215,1.25-0.659,1.694
			c-0.424,0.424-0.989,0.639-1.691,0.639h-1.675v-1.779h1.301c0.392,0,0.591-0.244,0.591-0.732v-5.059h-1.728v-1.784h9.73V104.999z"
			/>
	</g>
	<polygon fill="#1EA8E0" points="11.153,105.193 11.153,97.262 7.638,97.262 7.638,95.483 17.087,95.483 17.087,97.262 
		13.573,97.262 13.573,105.193 	"/>
	<path fill="#1EA8E0" d="M26.373,105.196l-0.797-1.921h-4.338l-0.729,1.921h-2.564l3.915-9.713h2.805l4.317,9.713H26.373z
		 M21.874,101.58h2.993l-1.571-3.775L21.874,101.58z"/>
	<g>
		<defs>
			<rect id="SVGID_3_" width="153.076" height="122.315"/>
		</defs>
		<clipPath id="SVGID_4_">
			<use xlink:href="#SVGID_3_"  overflow="visible"/>
		</clipPath>
		<path clip-path="url(#SVGID_4_)" fill="#1EA8E0" d="M40.946,96.151c-0.974-0.469-2.38-0.796-3.834-0.796
			c-3.464,0-5.854,2.036-5.854,4.999c0,2.905,2.407,4.971,5.795,4.971c1.568,0,3.361-0.558,4.085-1.31v-3.977h-3.828v1.788h1.407
			v1.138c-0.712,0.283-1.007,0.336-1.606,0.336c-2.01,0-3.362-1.138-3.362-2.857c0-1.443,0.929-3.063,3.562-3.063
			c1.193,0,2.391,0.295,3.635,0.894V96.151z"/>
	</g>
	<polygon fill="#1EA8E0" points="45.389,105.193 45.389,95.483 47.81,95.483 47.81,103.419 52.793,103.419 52.793,105.193 	"/>
	<rect x="56.363" y="95.479" fill="#1EA8E0" width="2.423" height="9.713"/>
	<polygon fill="#1EA8E0" points="65.985,105.193 65.985,97.262 62.465,97.262 62.465,95.483 71.927,95.483 71.927,97.262 
		68.406,97.262 68.406,105.193 	"/>
	<g>
		<defs>
			<rect id="SVGID_5_" width="153.076" height="122.315"/>
		</defs>
		<clipPath id="SVGID_6_">
			<use xlink:href="#SVGID_5_"  overflow="visible"/>
		</clipPath>
		<path clip-path="url(#SVGID_6_)" fill="#1EA8E0" d="M80.441,100.632c0,0.882-0.718,1.6-1.6,1.6c-0.883,0-1.597-0.718-1.597-1.6
			c0-0.883,0.714-1.594,1.597-1.594C79.723,99.038,80.441,99.75,80.441,100.632"/>
		<path clip-path="url(#SVGID_6_)" fill="#19335D" d="M11.058,122.182H7.515v-11.628h2.737c0.868,0,1.542,0.128,2.023,0.387
			c0.486,0.26,0.855,0.611,1.113,1.066c0.252,0.455,0.381,0.977,0.381,1.572c0,1.142-0.534,1.957-1.598,2.452
			c0.766,0.159,1.375,0.511,1.827,1.049c0.451,0.54,0.676,1.182,0.676,1.932c0,0.595-0.138,1.122-0.413,1.589
			c-0.275,0.466-0.677,0.843-1.207,1.14C12.521,122.034,11.858,122.182,11.058,122.182 M10.299,112.037H9.01v3.497h0.996
			c0.801,0,1.372-0.17,1.706-0.51c0.337-0.34,0.504-0.777,0.504-1.313C12.216,112.597,11.578,112.037,10.299,112.037
			 M10.414,117.014H9.01v3.687h1.477c0.82,0,1.377-0.071,1.664-0.211c0.296-0.141,0.531-0.364,0.71-0.66
			c0.175-0.302,0.263-0.625,0.263-0.968c0-0.354-0.094-0.679-0.281-0.975c-0.188-0.293-0.453-0.512-0.797-0.656
			C11.701,117.087,11.156,117.014,10.414,117.014"/>
	</g>
	<rect x="16.319" y="110.556" fill="#19335D" width="1.501" height="11.627"/>
	<g>
		<defs>
			<rect id="SVGID_7_" width="153.076" height="122.315"/>
		</defs>
		<clipPath id="SVGID_8_">
			<use xlink:href="#SVGID_7_"  overflow="visible"/>
		</clipPath>
		<path clip-path="url(#SVGID_8_)" fill="#19335D" d="M20.338,122.184v-11.627h2.624c1.055,0,1.899,0.29,2.521,0.874
			c0.622,0.58,0.931,1.371,0.931,2.359c0,0.679-0.151,1.266-0.456,1.758c-0.304,0.492-0.742,0.862-1.313,1.107
			c0.34,0.244,0.665,0.578,0.984,0.997c0.32,0.425,0.767,1.161,1.348,2.208c0.364,0.658,0.656,1.158,0.88,1.492l0.551,0.832h-1.782
			l-0.458-0.768c-0.018-0.026-0.047-0.073-0.09-0.142l-0.291-0.456l-0.467-0.85l-0.5-0.91c-0.304-0.474-0.592-0.855-0.851-1.14
			c-0.258-0.281-0.486-0.484-0.697-0.61c-0.205-0.123-0.551-0.187-1.043-0.187h-0.392v5.062H20.338z M22.288,111.969h-0.451v3.67
			h0.571c0.758,0,1.277-0.071,1.562-0.218c0.282-0.143,0.504-0.359,0.658-0.654c0.157-0.286,0.24-0.621,0.24-0.993
			c0-0.366-0.088-0.698-0.264-0.997c-0.176-0.293-0.422-0.504-0.74-0.626C23.547,112.028,23.021,111.969,22.288,111.969"/>
	</g>
	<polygon fill="#19335D" points="27.955,110.539 36.696,110.539 36.696,112.019 33.05,112.019 33.05,122.184 31.544,122.184 
		31.544,112.019 27.955,112.019 	"/>
	<polygon fill="#19335D" points="45.646,110.554 47.142,110.554 47.142,122.182 45.646,122.182 45.646,117.122 39.762,117.122 
		39.762,122.182 38.267,122.182 38.267,110.554 39.762,110.554 39.762,115.583 45.646,115.583 	"/>
	<g>
		<defs>
			<rect id="SVGID_9_" width="153.076" height="122.315"/>
		</defs>
		<clipPath id="SVGID_10_">
			<use xlink:href="#SVGID_9_"  overflow="visible"/>
		</clipPath>
		<path clip-path="url(#SVGID_10_)" fill="#19335D" d="M49.651,122.184v-11.627h2.62c1.059,0,1.899,0.29,2.521,0.874
			c0.62,0.58,0.931,1.371,0.931,2.359c0,0.679-0.149,1.266-0.458,1.758c-0.301,0.492-0.738,0.862-1.309,1.107
			c0.335,0.244,0.664,0.578,0.982,0.997c0.322,0.425,0.771,1.161,1.348,2.208c0.362,0.658,0.656,1.158,0.879,1.492l0.551,0.832
			h-1.781l-0.458-0.768c-0.016-0.026-0.044-0.073-0.089-0.142l-0.293-0.456l-0.462-0.85l-0.504-0.91
			c-0.305-0.474-0.592-0.855-0.85-1.14c-0.258-0.281-0.487-0.484-0.696-0.61c-0.207-0.123-0.553-0.187-1.046-0.187h-0.392v5.062
			H49.651z M51.598,111.969h-0.451v3.67h0.571c0.758,0,1.281-0.071,1.562-0.218c0.281-0.143,0.504-0.359,0.659-0.654
			c0.156-0.286,0.238-0.621,0.238-0.993c0-0.366-0.089-0.698-0.264-0.997c-0.176-0.293-0.422-0.504-0.739-0.626
			C52.857,112.028,52.333,111.969,51.598,111.969"/>
	</g>
	<rect x="59.024" y="110.556" fill="#19335D" width="1.497" height="11.627"/>
	<g>
		<defs>
			<rect id="SVGID_11_" width="153.076" height="122.315"/>
		</defs>
		<clipPath id="SVGID_12_">
			<use xlink:href="#SVGID_11_"  overflow="visible"/>
		</clipPath>
		<path clip-path="url(#SVGID_12_)" fill="#19335D" d="M68.656,116.456h3.513v4.928c-1.292,0.621-2.57,0.928-3.836,0.928
			c-1.734,0-3.118-0.56-4.153-1.682c-1.041-1.122-1.556-2.508-1.556-4.156c0-1.737,0.539-3.186,1.612-4.337
			c1.073-1.155,2.421-1.733,4.039-1.733c0.586,0,1.146,0.071,1.677,0.215c0.527,0.141,1.195,0.398,2.008,0.777v1.7
			c-1.249-0.806-2.49-1.211-3.714-1.211c-1.144,0-2.11,0.437-2.896,1.299c-0.782,0.868-1.175,1.931-1.175,3.189
			c0,1.321,0.393,2.4,1.175,3.238c0.786,0.839,1.794,1.257,3.032,1.257c0.597,0,1.313-0.151,2.147-0.456l0.141-0.051v-2.423h-2.013
			V116.456z"/>
	</g>
	<polygon fill="#19335D" points="81.874,110.554 83.372,110.554 83.372,122.182 81.874,122.182 81.874,117.122 75.992,117.122 
		75.992,122.182 74.494,122.182 74.494,110.554 75.992,110.554 75.992,115.583 81.874,115.583 	"/>
	<polygon fill="#19335D" points="84.939,110.539 93.683,110.539 93.683,112.019 90.034,112.019 90.034,122.184 88.531,122.184 
		88.531,112.019 84.939,112.019 	"/>
	<rect x="100.955" y="110.556" fill="#19335D" width="1.501" height="11.627"/>
	<g>
		<defs>
			<rect id="SVGID_13_" width="153.076" height="122.315"/>
		</defs>
		<clipPath id="SVGID_14_">
			<use xlink:href="#SVGID_13_"  overflow="visible"/>
		</clipPath>
		<path clip-path="url(#SVGID_14_)" fill="#19335D" d="M107.509,117.309l-1.138-0.767c-0.715-0.488-1.225-0.963-1.523-1.432
			c-0.306-0.468-0.456-1.008-0.456-1.618c0-0.914,0.285-1.657,0.853-2.233c0.575-0.569,1.316-0.856,2.233-0.856
			c0.874,0,1.674,0.272,2.403,0.819v1.89c-0.756-0.809-1.568-1.21-2.433-1.21c-0.492,0-0.893,0.126-1.207,0.378
			c-0.314,0.252-0.472,0.574-0.472,0.963c0,0.349,0.114,0.674,0.348,0.982c0.229,0.303,0.604,0.622,1.115,0.956l1.142,0.75
			c1.282,0.85,1.919,1.929,1.919,3.235c0,0.937-0.282,1.692-0.84,2.275c-0.566,0.58-1.296,0.87-2.192,0.87
			c-1.038,0-1.979-0.349-2.829-1.056v-2.116c0.812,1.141,1.747,1.709,2.811,1.709c0.469,0,0.862-0.144,1.172-0.435
			c0.311-0.29,0.47-0.653,0.47-1.09C108.886,118.616,108.427,117.948,107.509,117.309"/>
		<path clip-path="url(#SVGID_14_)" fill="#19335D" d="M112.124,122.184v-11.627h2.624c1.055,0,1.899,0.29,2.521,0.874
			c0.622,0.58,0.933,1.371,0.933,2.359c0,0.679-0.153,1.266-0.458,1.758c-0.304,0.492-0.742,0.862-1.313,1.107
			c0.34,0.244,0.665,0.578,0.984,0.997c0.32,0.425,0.769,1.161,1.348,2.208c0.364,0.658,0.658,1.158,0.88,1.492l0.551,0.832h-1.782
			l-0.455-0.768c-0.02-0.026-0.049-0.073-0.093-0.142l-0.291-0.456l-0.462-0.85l-0.502-0.91c-0.307-0.474-0.595-0.855-0.853-1.14
			c-0.255-0.281-0.486-0.484-0.697-0.61c-0.205-0.123-0.554-0.187-1.044-0.187h-0.392v5.062H112.124z M114.074,111.969h-0.451v3.67
			h0.569c0.762,0,1.279-0.071,1.562-0.218c0.285-0.143,0.504-0.359,0.66-0.654c0.161-0.286,0.24-0.621,0.24-0.993
			c0-0.366-0.089-0.698-0.264-0.997c-0.176-0.293-0.422-0.504-0.738-0.626C115.333,112.028,114.807,111.969,114.074,111.969"/>
	</g>
	<path fill="#19335D" d="M124.842,110.489h1.055l4.693,11.695h-1.533l-1.396-3.447h-4.467l-1.308,3.447h-1.538L124.842,110.489z
		 M127.046,117.254l-1.691-4.212l-1.562,4.212H127.046z"/>
	<polygon fill="#19335D" points="131.888,110.554 137.821,110.554 137.821,112.037 133.387,112.037 133.387,115.583 
		137.674,115.583 137.674,117.071 133.387,117.071 133.387,120.683 137.961,120.683 137.961,122.166 131.888,122.166 	"/>
	<polygon fill="#19335D" points="139.714,110.554 141.209,110.554 141.209,120.667 145.922,120.667 145.922,122.182 
		139.714,122.182 	"/>
</g>
</svg>
